614
2
4
6
8
10
12
14
16
18
21
23
26
31
35
37
39
53
55
57
59
61
63
65
67
69
71
73
75
77
79
81
83
85
87
89
91
93
95
97
99
101
103
105
106
108
110
112
114
116
118
119
121
122
126
129
132
134
136
138
140
142
145
149
152
155
157
161
163
166
169
171
173
175
178
180
184
186
189
191
193
195
197
199
204
206
208
210
212
216
218
226
229
233
235
237
242
244
246
249
256
258
261
267
269
271
273
275
277
279
284
290
295
299
302
304
306
308
310
312
314
316
318
320
322
330
332
334
336
338
339
341
343
344
346
348
350
353
355
360
362
364
367
370
372
374
376
378
380
383
385
387
395
397
399
402
403
404
406
407
409
411
413
415
418
420
421
423
424
427
433
435
437
439
441
444
446
448
450
452
454
456
458
460
462
464
466
468
471
473
475
478
480
482
484
486
488
491
493
495
496
498
500
502
505
507
510
517
519
521
523
529
531
533
535
537
539
541
543
544
546
548
550
552
554
556
558
559
561
562
564
566
568
570
572
574
576
578
580
581
583
585
587
589
591
593
595
597
600
602
604
605
607
609
610
612
