0
297
14
591
197
15
592
198
367
409
368
356
5
440
325
4
439
3
285
140
284
2
314
141
64
431
63
123
240
355
547
451
95
374
30
450
375
438
46
66
65
131
532
147
531
344
392
304
461
557
460
171
336
84
287
337
83
513
500
382
402
501
53
103
462
54
463
567
445
483
497
444
566
496
482
10
270
291
377
300
104
269
11
266
299
615
290
376
186
599
390
187
110
133
294
111
144
534
201
421
386
329
277
125
407
80
278
79
114
408
422
97
98
474
256
417
49
257
142
348
143
349
117
196
99
195
100
224
569
264
568
310
16
17
116
309
261
308
262
467
311
546
211
23
466
24
210
27
96
320
26
236
321
177
48
76
75
232
307
493
279
357
259
494
122
306
258
347
317
346
420
151
237
551
238
550
288
217
199
216
580
200
399
316
453
400
239
275
276
85
332
565
86
253
564
333
105
373
228
176
540
459
175
539
1
160
458
354
118
139
353
52
138
41
442
512
441
326
115
530
449
260
448
529
573
587
168
58
403
280
588
57
335
334
345
416
415
60
235
190
208
167
249
189
59
233
250
209
509
148
70
37
130
234
69
38
478
252
129
44
243
137
242
150
248
342
341
149
162
556
296
222
161
265
295
213
223
202
42
218
282
155
322
577
305
219
323
518
68
537
47
470
67
538
73
183
544
74
389
545
293
173
6
174
391
7
71
72
352
32
185
184
31
613
191
484
485
612
601
289
77
215
600
78
13
132
432
164
263
434
339
405
433
404
340
170
521
384
583
383
169
522
616
527
225
93
477
578
94
579
273
268
274
397
254
267
9
464
465
8
411
523
371
90
412
524
89
157
370
179
327
178
560
135
489
543
559
488
134
182
487
62
486
51
61
127
372
255
126
514
468
595
25
542
28
469
596
419
385
506
447
153
205
152
446
204
597
230
563
598
562
229
246
194
516
456
398
505
457
81
472
82
221
471
312
410
525
504
313
528
193
429
33
426
283
552
553
34
388
387
541
495
92
475
473
91
476
212
361
39
406
136
423
443
21
396
614
22
576
366
220
231
561
360
414
555
554
413
241
247
574
226
156
517
437
227
166
378
120
606
379
119
605
158
363
315
575
251
203
515
45
381
56
12
272
55
380
338
271
609
40
452
124
607
43
430
608
214
324
558
128
318
589
188
281
145
50
319
590
146
394
427
428
19
418
491
490
18
492
206
393
350
330
351
331
364
303
548
520
549
365
302
172
507
362
508
301
192
359
519
586
585
20
286
533
526
401
245
604
244
502
536
610
535
611
503
436
180
498
435
181
499
369
298
207
594
35
593
584
36
395
328
102
479
101
121
154
159
581
571
480
582
570
481
511
455
510
454
165
572
29
108
112
109
358
113
603
106
292
602
107
424
88
87
425
163
343
